Special data types
…
Change order of the levels

gss_cat$partyid %>%
  levels()

##  [1] "No answer"          "Don't know"         "Other party"       
##  [4] "Strong republican"  "Not str republican" "Ind,near rep"      
##  [7] "Independent"        "Ind,near dem"       "Not str democrat"  
## [10] "Strong democrat"

## order by frequency
gss_cat %>% mutate(partyid = partyid %>% fct_infreq())

## # A tibble: 21,483 x 9
##     year marital     age race  rincome    partyid     relig     denom    tvhours
##    <int> <fct>     <int> <fct> <fct>      <fct>       <fct>     <fct>      <int>
##  1  2000 Never ma    26 White $8000 to  Ind,near r Protesta Souther      12
##  2  2000 Divorced     48 White $8000 to  Not str re Protesta Baptist      NA
##  3  2000 Widowed      67 White Not appli Independent Protesta No deno       2
##  4  2000 Never ma    39 White Not appli Ind,near r Orthodox Not app       4
##  5  2000 Divorced     25 White Not appli Not str de None      Not app       1
##  6  2000 Married      25 White $20000 -  Strong dem Protesta Souther      NA
##  7  2000 Never ma    36 White $25000 or Not str re Christian Not app       3
##  8  2000 Divorced     44 White $7000 to  Ind,near d Protesta Luthera      NA
##  9  2000 Married      44 White $25000 or Not str de Protesta Other          0
## 10  2000 Married      47 White $25000 or Strong rep Protesta Souther       3
## #  with 21,473 more rows

## backwards!
gss_cat %>% mutate(partyid = partyid %>% fct_infreq() %>% fct_rev())

## # A tibble: 21,483 x 9
##     year marital     age race  rincome    partyid     relig     denom    tvhours
##    <int> <fct>     <int> <fct> <fct>      <fct>       <fct>     <fct>      <int>
##  1  2000 Never ma    26 White $8000 to  Ind,near r Protesta Souther      12
##  2  2000 Divorced     48 White $8000 to  Not str re Protesta Baptist      NA
##  3  2000 Widowed      67 White Not appli Independent Protesta No deno       2
##  4  2000 Never ma    39 White Not appli Ind,near r Orthodox Not app       4
##  5  2000 Divorced     25 White Not appli Not str de None      Not app       1
##  6  2000 Married      25 White $20000 -  Strong dem Protesta Souther      NA
##  7  2000 Never ma    36 White $25000 or Not str re Christian Not app       3
##  8  2000 Divorced     44 White $7000 to  Ind,near d Protesta Luthera      NA
##  9  2000 Married      44 White $25000 or Not str de Protesta Other          0
## 10  2000 Married      47 White $25000 or Strong rep Protesta Souther       3
## #  with 21,473 more rows
…
gss_cat$partyid %>%
  fct_relevel("Strong republican", "Strong democrat") %>%
  levels()

##  [1] "Strong republican"  "Strong democrat"    "No answer"         
##  [4] "Don't know"         "Other party"        "Not str republican"
##  [7] "Ind,near rep"       "Independent"        "Ind,near dem"      
## [10] "Not str democrat"

# use mutate verb to modifly the data frame
gss_cat %>% mutate(partyid = partyid %>% fct_relevel("Strong republican", "Strong democrat"))

## # A tibble: 21,483 x 9
##     year marital     age race  rincome    partyid     relig     denom    tvhours
##    <int> <fct>     <int> <fct> <fct>      <fct>       <fct>     <fct>      <int>
##  1  2000 Never ma    26 White $8000 to  Ind,near r Protesta Souther      12
##  2  2000 Divorced     48 White $8000 to  Not str re Protesta Baptist      NA
##  3  2000 Widowed      67 White Not appli Independent Protesta No deno       2
##  4  2000 Never ma    39 White Not appli Ind,near r Orthodox Not app       4
##  5  2000 Divorced     25 White Not appli Not str de None      Not app       1
##  6  2000 Married      25 White $20000 -  Strong dem Protesta Souther      NA
##  7  2000 Never ma    36 White $25000 or Not str re Christian Not app       3
##  8  2000 Divorced     44 White $7000 to  Ind,near d Protesta Luthera      NA
##  9  2000 Married      44 White $25000 or Not str de Protesta Other          0
## 10  2000 Married      47 White $25000 or Strong rep Protesta Souther       3
## #  with 21,473 more rows
…
##  [1] "No answer"            "Don't know"           "Other party"         
##  [4] "Strong republican"    "Not str republican"   "Independent,near rep"
##  [7] "Independent"          "Independent,near dem" "Not str democrat"    
## [10] "Strong democrat"

# if we need to modifly the data frame, then
gss_cat %>% mutate(partyid = partyid %>%
  fct_recode(
    "Independent,near rep" = "Ind,near rep",
    "Independent,near dem" = "Ind,near dem"
  ))

## # A tibble: 21,483 x 9
##     year marital     age race  rincome    partyid     relig     denom    tvhours
##    <int> <fct>     <int> <fct> <fct>      <fct>       <fct>     <fct>      <int>
##  1  2000 Never ma    26 White $8000 to  Independen Protesta Souther      12
##  2  2000 Divorced     48 White $8000 to  Not str re Protesta Baptist      NA
##  3  2000 Widowed      67 White Not appli Independent Protesta No deno       2
##  4  2000 Never ma    39 White Not appli Independen Orthodox Not app       4
##  5  2000 Divorced     25 White Not appli Not str de None      Not app       1
##  6  2000 Married      25 White $20000 -  Strong dem Protesta Souther      NA
##  7  2000 Never ma    36 White $25000 or Not str re Christian Not app       3
##  8  2000 Divorced     44 White $7000 to  Independen Protesta Luthera      NA
##  9  2000 Married      44 White $25000 or Not str de Protesta Other          0
## 10  2000 Married      47 White $25000 or Strong rep Protesta Souther       3
## #  with 21,473 more rows
…
## [1] "2020-01-21 05:01:00 PST"

# fix a timezone
force_tz(t1, tzone = "US/Pacific")

## [1] "2020-01-21 08:01:00 PST"

From individual components

library(nycflights13)
flights %>%
  select(year, month, day, hour, minute)

## # A tibble: 336,776 x 5
##     year month   day  hour minute
##    <int> <int> <int> <dbl>  <dbl>
##  1  2013     1     1     5     15
##  2  2013     1     1     5     29
##  3  2013     1     1     5     40
##  4  2013     1     1     5     45
##  5  2013     1     1     6      0
##  6  2013     1     1     5     58
##  7  2013     1     1     6      0
##  8  2013     1     1     6      0
##  9  2013     1     1     6      0
## 10  2013     1     1     6      0
## #  with 336,766 more rows

(flights_dt <- flights %>%
  select(year, month, day, hour, minute) %>%
  mutate(
    date = make_date(year, month, day),
    time = make_datetime(year, month, day, hour, minute)
  ))

## # A tibble: 336,776 x 7
##     year month   day  hour minute date       time               
##    <int> <int> <int> <dbl>  <dbl> <date>     <dttm>             
##  1  2013     1     1     5     15 2013-01-01 2013-01-01 05:15:00
##  2  2013     1     1     5     29 2013-01-01 2013-01-01 05:29:00
##  3  2013     1     1     5     40 2013-01-01 2013-01-01 05:40:00
##  4  2013     1     1     5     45 2013-01-01 2013-01-01 05:45:00
##  5  2013     1     1     6      0 2013-01-01 2013-01-01 06:00:00
##  6  2013     1     1     5     58 2013-01-01 2013-01-01 05:58:00
##  7  2013     1     1     6      0 2013-01-01 2013-01-01 06:00:00
##  8  2013     1     1     6      0 2013-01-01 2013-01-01 06:00:00
##  9  2013     1     1     6      0 2013-01-01 2013-01-01 06:00:00
## 10  2013     1     1     6      0 2013-01-01 2013-01-01 06:00:00
## #  with 336,766 more rows
…
